prenoms_dplyr_clean_data_if-at-all_en
…
# Joining both tables and calculating the average number of children per college in 2010 in each department by dividing
average_children_per_college_dpt <- full_join(children_in_college_dpt, colleges_dpt) %>% 
  mutate(average_children_per_college = children_in_college / colleges) %>% 
  dplyr::select(dpt, average_children_per_college) %>% 
  arrange(desc(average_children_per_college))

## Joining, by = "dpt"

# Displaying the result
average_children_per_college_dpt

## # A tibble: 95 x 2
##    dpt   average_children_per_college
##    <chr>                        <dbl>
##  1 75                            721.
##  2 92                            608.
##  3 69                            517.
##  4 59                            478.
##  5 76                            450.
##  6 84                            429.
##  7 42                            416.
##  8 51                            414.
##  9 74                            413.
## 10 68                            411.
## # ... with 85 more rows

Number of Facts observed by the police services in 2010 per department ?

# Calculating the number of facts by department
faits_2010_dpt <- faits_2010_modif_metropolitan %>% 
  group_by(dpt) %>% 
  summarise(nb_faits = sum(nombre)) %>% 
  arrange(desc(nb_faits))

# Displaying the result
faits_2010_dpt

## # A tibble: 95 x 2
##    dpt   nb_faits
##    <chr>    <dbl>
##  1 75      238856
##  2 13      172445
##  3 59      166565
##  4 93      142798
##  5 69      115632
##  6 92       96520
##  7 06       93308
##  8 95       92392
##  9 94       90376
## 10 33       85153
## # ... with 85 more rows
…
# Joining this table with the table indicating the number of colleges by department
children_born_and_colleges_2010 <- full_join(children_2010 , colleges_dpt)

## Joining, by = "dpt"

# Joining this table with the table indicating the number of facts observed, under the name "master_table_2010"
master_table_2010 <- full_join(children_born_and_colleges_2010, faits_2010_dpt) %>% 
  arrange(desc(children_born), desc(colleges), desc(nb_faits))

## Joining, by = "dpt"

# Displaying the result
master_table_2010

## # A tibble: 95 x 4
##    dpt   children_born colleges nb_faits
##    <chr>         <int>    <int>    <dbl>
##  1 75            35795      192   238856
##  2 59            33771      289   166565
##  3 69            23073      170   115632
##  4 92            22114      139    96520
##  5 13            21893      194   172445
##  6 93            16082      157   142798
##  7 62            14983      160    73918
##  8 76            14878      133    66765
##  9 44            14539      145    71222
## 10 94            14355      138    90376
## # ... with 85 more rows
…
# Joining this table with our master_table_2010 and divinding each previous column by the surface in km2
master_table_2010_km2 <- full_join(master_table_2010,km2_dpt, by = c("dpt" = "CODE_DEPT")) %>% 
  mutate(children_born_km2 = children_born / surface_km2) %>% 
  mutate(colleges_km2 = colleges / surface_km2) %>% 
  mutate(nb_faits_km2 = nb_faits / surface_km2) %>% 
  arrange(desc(children_born_km2), desc(colleges_km2), desc(nb_faits_km2))

# Displaying the result
print(master_table_2010_km2 %>% dplyr::select(dpt, children_born_km2, colleges_km2, nb_faits_km2))

## # A tibble: 95 x 4
##    dpt   children_born_km2 colleges_km2 nb_faits_km2
##    <chr>             <dbl>        <dbl>        <dbl>
##  1 75               338.         1.81         2254. 
##  2 92               126.         0.792         550. 
##  3 93                67.8        0.661         602. 
##  4 94                58.8        0.565         370. 
##  5 95                10.9        0.113          73.7
##  6 69                 7.09       0.0523         35.5
##  7 91                 6.29       0.0676         38.5
##  8 78                 5.99       0.0655         36.5
##  9 59                 5.86       0.0501         28.9
## 10 13                 4.30       0.0381         33.9
## # ... with 85 more rows
…
